Jan 25 2022 0:21:34.717	11888	3744	1	execsql,time,sql,errormsg	0	INSERT INTO Locks(Lock_SessionId,Lock_TableId,Lock_RecordId,Lock_CreatedBy,Lock_CreatedDate)  VALUES (N'770820930294',10175,N'7894640',20,'20220125 00:21:34')
	Cannot insert duplicate key row in object 'dbo.Locks' with unique index 'IDX_Lock_TableId_RecordId'. The duplicate key value is (10175, 7894640)
Jan 25 2022 0:36:42.612	11888	14688	1	execsql,time,sql,errormsg	31	UPDATE UserTracking SET UTrc_CreatedDate='20220125 00:36:42',UTrc_Id=246,UTrc_ActionID=866,UTrc_ModeID=1,UTrc_UserID=20,UTrc_LastClick='20220125 00:11:50',UTrc_UsageCount=49,UTrc_TimeStamp='20220125 00:36:42',UTrc_UpdatedDate='20220125 00:36:42' WHERE (UTrc_ActionID = 866 AND UTrc_UserID = 20 AND UTrc_ModeID = 1)
	Cannot insert duplicate key row in object 'dbo.UserTracking' with unique index 'IDX_UTrc_ID'. The duplicate key value is (246)
Jan 25 2022 13:11:01.654	11888	13516	1	execsql,time,sql,errormsg	16	INSERT INTO Locks(Lock_SessionId,Lock_TableId,Lock_RecordId,Lock_CreatedBy,Lock_CreatedDate)  VALUES (N'363310967297',10194,N'1045',20,'20220125 13:11:01')
	Cannot insert duplicate key row in object 'dbo.Locks' with unique index 'IDX_Lock_TableId_RecordId'. The duplicate key value is (10194, 1045)
Jan 25 2022 13:11:01.686	11888	13516	1	execsql,time,sql,errormsg	0	INSERT INTO Locks(Lock_SessionId,Lock_TableId,Lock_RecordId,Lock_CreatedBy,Lock_CreatedDate)  VALUES (N'363310967297',10194,N'1045',20,'20220125 13:11:01')
	Cannot insert duplicate key row in object 'dbo.Locks' with unique index 'IDX_Lock_TableId_RecordId'. The duplicate key value is (10194, 1045)
Jan 25 2022 13:11:03.595	11888	8880	1	execsql,time,sql,errormsg	0	INSERT INTO Locks(Lock_SessionId,Lock_TableId,Lock_RecordId,Lock_CreatedBy,Lock_CreatedDate)  VALUES (N'1044360788300',10194,N'1042',21,'20220125 13:11:03')
	Cannot insert duplicate key row in object 'dbo.Locks' with unique index 'IDX_Lock_TableId_RecordId'. The duplicate key value is (10194, 1042)